(module "LED_PLCC_2835" (layer F.Cu) (tedit 5F39FEDD)
  (descr "https://www.luckylight.cn/media/component/data-sheet/R2835BC-B2M-M10.pdf")
  (tags "LED")
  (attr smd)
  (fp_text reference "D" (at 0 -2.4 -180) (layer F.SilkS)
    (effects (font (size 1 1) (thickness 0.15)))
  )
  (fp_text value "JB2835AWT-W-U40GA0000-N0000001" (at 0 2.475 -180) (layer F.Fab)
    (effects (font (size 1 1) (thickness 0.15)))
  )
  (fp_line (start -1.05 -1.4) (end -1.75 -0.7) (layer F.Fab) (width 0.1))
  (fp_line (start -2.2 -1.6) (end -2.2 1.6) (layer F.SilkS) (width 0.12))
  (fp_text user "${REFERENCE}" (at 0 0 -180) (layer F.Fab)
    (effects (font (size 0.9 0.9) (thickness 0.135)))
  )
  (fp_line (start 1.75 1.4) (end -1.75 1.4) (layer F.Fab) (width 0.1))
  (fp_line (start -1.75 1.4) (end -1.75 -0.7) (layer F.Fab) (width 0.1))
  (fp_line (start -1.05 -1.4) (end 1.75 -1.4) (layer F.Fab) (width 0.1))
  (fp_line (start 1.75 -1.4) (end 1.75 1.4) (layer F.Fab) (width 0.1))
  (fp_line (start 1.4 1.6) (end -2.2 1.6) (layer F.SilkS) (width 0.12))
  (fp_line (start 1.4 -1.6) (end -2.2 -1.6) (layer F.SilkS) (width 0.12))
  (fp_line (start 2.25 1.65) (end -2.25 1.65) (layer F.CrtYd) (width 0.05))
  (fp_line (start -2.25 1.65) (end -2.25 -1.65) (layer F.CrtYd) (width 0.05))
  (fp_line (start -2.25 -1.65) (end 2.25 -1.65) (layer F.CrtYd) (width 0.05))
  (fp_line (start 2.25 -1.65) (end 2.25 1.65) (layer F.CrtYd) (width 0.05))
  (pad "2" smd rect (at 1.375 0) (size 1.25 2.2) (layers "F.Cu" "F.Paste" "F.Mask") (tstamp b3750c2e-8b59-40de-b816-8aff752b7621))
  (pad "1" smd rect (at -0.9 0) (size 2.2 2.2) (layers "F.Cu" "F.Paste" "F.Mask") (tstamp b5b25e64-e18c-431f-a3cc-45231594af7b))
  (model "${KIPRJMOD}/LED 2835.stp"
    (offset (xyz -1.75 -1.5 0))
    (scale (xyz 1 1 1))
    (rotate (xyz 0 0 0))
  )
)
